%YAML 1.1
%TAG !u! tag:unity3d.com,2011:
--- !u!1 &7960411622358962667
GameObject:
  m_ObjectHideFlags: 0
  m_CorrespondingSourceObject: {fileID: 0}
  m_PrefabInstance: {fileID: 0}
  m_PrefabAsset: {fileID: 0}
  serializedVersion: 6
  m_Component:
  - component: {fileID: 5820075676295057495}
  - component: {fileID: 8478917525641538119}
  - component: {fileID: 283982049960720362}
  m_Layer: 0
  m_Name: Trigger
  m_TagString: Untagged
  m_Icon: {fileID: 0}
  m_NavMeshLayer: 0
  m_StaticEditorFlags: 0
  m_IsActive: 1
--- !u!4 &5820075676295057495
Transform:
  m_ObjectHideFlags: 0
  m_CorrespondingSourceObject: {fileID: 0}
  m_PrefabInstance: {fileID: 0}
  m_PrefabAsset: {fileID: 0}
  m_GameObject: {fileID: 7960411622358962667}
  m_LocalRotation: {x: -0, y: -0, z: -0, w: 1}
  m_LocalPosition: {x: -0.781925, y: 0, z: 0}
  m_LocalScale: {x: 10, y: 10, z: 10}
  m_Children: []
  m_Father: {fileID: 8279721241860779731}
  m_RootOrder: 12
  m_LocalEulerAnglesHint: {x: 0, y: 0, z: 0}
--- !u!33 &8478917525641538119
MeshFilter:
  m_ObjectHideFlags: 0
  m_CorrespondingSourceObject: {fileID: 0}
  m_PrefabInstance: {fileID: 0}
  m_PrefabAsset: {fileID: 0}
  m_GameObject: {fileID: 7960411622358962667}
  m_Mesh: {fileID: -8133179410222150183, guid: 5c85fea770e05114aa398b64c3930d1a, type: 3}
--- !u!23 &283982049960720362
MeshRenderer:
  m_ObjectHideFlags: 0
  m_CorrespondingSourceObject: {fileID: 0}
  m_PrefabInstance: {fileID: 0}
  m_PrefabAsset: {fileID: 0}
  m_GameObject: {fileID: 7960411622358962667}
  m_Enabled: 1
  m_CastShadows: 1
  m_ReceiveShadows: 1
  m_DynamicOccludee: 1
  m_StaticShadowCaster: 0
  m_MotionVectors: 1
  m_LightProbeUsage: 1
  m_ReflectionProbeUsage: 1
  m_RayTracingMode: 2
  m_RayTraceProcedural: 0
  m_RenderingLayerMask: 1
  m_RendererPriority: 0
  m_Materials:
  - {fileID: 2100000, guid: 5494e7840d3cd744ebbcf506467d9640, type: 2}
  m_StaticBatchInfo:
    firstSubMesh: 0
    subMeshCount: 0
  m_StaticBatchRoot: {fileID: 0}
  m_ProbeAnchor: {fileID: 0}
  m_LightProbeVolumeOverride: {fileID: 0}
  m_ScaleInLightmap: 1
  m_ReceiveGI: 1
  m_PreserveUVs: 0
  m_IgnoreNormalsForChartDetection: 0
  m_ImportantGI: 0
  m_StitchLightmapSeams: 1
  m_SelectedEditorRenderState: 3
  m_MinimumChartSize: 4
  m_AutoUVMaxDistance: 0.5
  m_AutoUVMaxAngle: 89
  m_LightmapParameters: {fileID: 0}
  m_SortingLayerID: 0
  m_SortingLayer: 0
  m_SortingOrder: 0
  m_AdditionalVertexStreams: {fileID: 0}
--- !u!1001 &3595366707735898245
PrefabInstance:
  m_ObjectHideFlags: 0
  serializedVersion: 2
  m_Modification:
    m_TransformParent: {fileID: 0}
    m_Modifications:
    - target: {fileID: 1788857551785577942, guid: 2f09e63a96276e74abf229b7e31f7e0c, type: 3}
      propertyPath: m_Name
      value: Trigger Bottom Cymbal Right 24
      objectReference: {fileID: 0}
    - target: {fileID: 4828479349219067478, guid: 2f09e63a96276e74abf229b7e31f7e0c, type: 3}
      propertyPath: m_RootOrder
      value: 0
      objectReference: {fileID: 0}
    - target: {fileID: 4828479349219067478, guid: 2f09e63a96276e74abf229b7e31f7e0c, type: 3}
      propertyPath: m_LocalPosition.x
      value: 0.319925
      objectReference: {fileID: 0}
    - target: {fileID: 4828479349219067478, guid: 2f09e63a96276e74abf229b7e31f7e0c, type: 3}
      propertyPath: m_LocalPosition.y
      value: 0
      objectReference: {fileID: 0}
    - target: {fileID: 4828479349219067478, guid: 2f09e63a96276e74abf229b7e31f7e0c, type: 3}
      propertyPath: m_LocalPosition.z
      value: 0
      objectReference: {fileID: 0}
    - target: {fileID: 4828479349219067478, guid: 2f09e63a96276e74abf229b7e31f7e0c, type: 3}
      propertyPath: m_LocalRotation.w
      value: 1
      objectReference: {fileID: 0}
    - target: {fileID: 4828479349219067478, guid: 2f09e63a96276e74abf229b7e31f7e0c, type: 3}
      propertyPath: m_LocalRotation.x
      value: 0
      objectReference: {fileID: 0}
    - target: {fileID: 4828479349219067478, guid: 2f09e63a96276e74abf229b7e31f7e0c, type: 3}
      propertyPath: m_LocalRotation.y
      value: 0
      objectReference: {fileID: 0}
    - target: {fileID: 4828479349219067478, guid: 2f09e63a96276e74abf229b7e31f7e0c, type: 3}
      propertyPath: m_LocalRotation.z
      value: 0
      objectReference: {fileID: 0}
    - target: {fileID: 4828479349219067478, guid: 2f09e63a96276e74abf229b7e31f7e0c, type: 3}
      propertyPath: m_LocalEulerAnglesHint.x
      value: 0
      objectReference: {fileID: 0}
    - target: {fileID: 4828479349219067478, guid: 2f09e63a96276e74abf229b7e31f7e0c, type: 3}
      propertyPath: m_LocalEulerAnglesHint.y
      value: 0
      objectReference: {fileID: 0}
    - target: {fileID: 4828479349219067478, guid: 2f09e63a96276e74abf229b7e31f7e0c, type: 3}
      propertyPath: m_LocalEulerAnglesHint.z
      value: 0
      objectReference: {fileID: 0}
    m_RemovedComponents: []
  m_SourcePrefab: {fileID: 100100000, guid: 2f09e63a96276e74abf229b7e31f7e0c, type: 3}
--- !u!4 &8279721241860779731 stripped
Transform:
  m_CorrespondingSourceObject: {fileID: 4828479349219067478, guid: 2f09e63a96276e74abf229b7e31f7e0c, type: 3}
  m_PrefabInstance: {fileID: 3595366707735898245}
  m_PrefabAsset: {fileID: 0}
