%YAML 1.1
%TAG !u! tag:unity3d.com,2011:
--- !u!1001 &5967097162108868919
PrefabInstance:
  m_ObjectHideFlags: 0
  serializedVersion: 2
  m_Modification:
    m_TransformParent: {fileID: 0}
    m_Modifications:
    - target: {fileID: 1394229105529065924, guid: 3f065aa26d16eaa4290091634baa196e, type: 3}
      propertyPath: m_RootOrder
      value: 0
      objectReference: {fileID: 0}
    - target: {fileID: 1394229105529065924, guid: 3f065aa26d16eaa4290091634baa196e, type: 3}
      propertyPath: m_LocalPosition.x
      value: 0
      objectReference: {fileID: 0}
    - target: {fileID: 1394229105529065924, guid: 3f065aa26d16eaa4290091634baa196e, type: 3}
      propertyPath: m_LocalPosition.y
      value: 0
      objectReference: {fileID: 0}
    - target: {fileID: 1394229105529065924, guid: 3f065aa26d16eaa4290091634baa196e, type: 3}
      propertyPath: m_LocalPosition.z
      value: 0
      objectReference: {fileID: 0}
    - target: {fileID: 1394229105529065924, guid: 3f065aa26d16eaa4290091634baa196e, type: 3}
      propertyPath: m_LocalRotation.w
      value: 0.00000007549791
      objectReference: {fileID: 0}
    - target: {fileID: 1394229105529065924, guid: 3f065aa26d16eaa4290091634baa196e, type: 3}
      propertyPath: m_LocalRotation.x
      value: -0
      objectReference: {fileID: 0}
    - target: {fileID: 1394229105529065924, guid: 3f065aa26d16eaa4290091634baa196e, type: 3}
      propertyPath: m_LocalRotation.y
      value: -0
      objectReference: {fileID: 0}
    - target: {fileID: 1394229105529065924, guid: 3f065aa26d16eaa4290091634baa196e, type: 3}
      propertyPath: m_LocalRotation.z
      value: 1
      objectReference: {fileID: 0}
    - target: {fileID: 1394229105529065924, guid: 3f065aa26d16eaa4290091634baa196e, type: 3}
      propertyPath: m_LocalEulerAnglesHint.x
      value: 0
      objectReference: {fileID: 0}
    - target: {fileID: 1394229105529065924, guid: 3f065aa26d16eaa4290091634baa196e, type: 3}
      propertyPath: m_LocalEulerAnglesHint.y
      value: 0
      objectReference: {fileID: 0}
    - target: {fileID: 1394229105529065924, guid: 3f065aa26d16eaa4290091634baa196e, type: 3}
      propertyPath: m_LocalEulerAnglesHint.z
      value: 0
      objectReference: {fileID: 0}
    - target: {fileID: 3956906583051952831, guid: 3f065aa26d16eaa4290091634baa196e, type: 3}
      propertyPath: m_Name
      value: Trigger Snare Drum Left
      objectReference: {fileID: 0}
    m_RemovedComponents: []
  m_SourcePrefab: {fileID: 100100000, guid: 3f065aa26d16eaa4290091634baa196e, type: 3}
--- !u!4 &4726009651004410099 stripped
Transform:
  m_CorrespondingSourceObject: {fileID: 1394229105529065924, guid: 3f065aa26d16eaa4290091634baa196e, type: 3}
  m_PrefabInstance: {fileID: 5967097162108868919}
  m_PrefabAsset: {fileID: 0}
--- !u!1001 &8106939719039428839
PrefabInstance:
  m_ObjectHideFlags: 0
  serializedVersion: 2
  m_Modification:
    m_TransformParent: {fileID: 4726009651004410099}
    m_Modifications:
    - target: {fileID: 672468440845700882, guid: e90c5fd74ae626e4bbf37a46623c427c, type: 3}
      propertyPath: m_RootOrder
      value: 12
      objectReference: {fileID: 0}
    - target: {fileID: 672468440845700882, guid: e90c5fd74ae626e4bbf37a46623c427c, type: 3}
      propertyPath: m_LocalPosition.x
      value: -0.1436
      objectReference: {fileID: 0}
    - target: {fileID: 672468440845700882, guid: e90c5fd74ae626e4bbf37a46623c427c, type: 3}
      propertyPath: m_LocalPosition.y
      value: 0.1067
      objectReference: {fileID: 0}
    - target: {fileID: 672468440845700882, guid: e90c5fd74ae626e4bbf37a46623c427c, type: 3}
      propertyPath: m_LocalPosition.z
      value: -0.09839535
      objectReference: {fileID: 0}
    - target: {fileID: 672468440845700882, guid: e90c5fd74ae626e4bbf37a46623c427c, type: 3}
      propertyPath: m_LocalRotation.w
      value: 0.000000080533304
      objectReference: {fileID: 0}
    - target: {fileID: 672468440845700882, guid: e90c5fd74ae626e4bbf37a46623c427c, type: 3}
      propertyPath: m_LocalRotation.x
      value: -0.000000001939493
      objectReference: {fileID: 0}
    - target: {fileID: 672468440845700882, guid: e90c5fd74ae626e4bbf37a46623c427c, type: 3}
      propertyPath: m_LocalRotation.y
      value: -1.4642767e-16
      objectReference: {fileID: 0}
    - target: {fileID: 672468440845700882, guid: e90c5fd74ae626e4bbf37a46623c427c, type: 3}
      propertyPath: m_LocalRotation.z
      value: -1
      objectReference: {fileID: 0}
    - target: {fileID: 672468440845700882, guid: e90c5fd74ae626e4bbf37a46623c427c, type: 3}
      propertyPath: m_LocalEulerAnglesHint.x
      value: 0
      objectReference: {fileID: 0}
    - target: {fileID: 672468440845700882, guid: e90c5fd74ae626e4bbf37a46623c427c, type: 3}
      propertyPath: m_LocalEulerAnglesHint.y
      value: 0
      objectReference: {fileID: 0}
    - target: {fileID: 672468440845700882, guid: e90c5fd74ae626e4bbf37a46623c427c, type: 3}
      propertyPath: m_LocalEulerAnglesHint.z
      value: 0
      objectReference: {fileID: 0}
    - target: {fileID: 826358553837648126, guid: e90c5fd74ae626e4bbf37a46623c427c, type: 3}
      propertyPath: m_LocalPosition.x
      value: -0.2022
      objectReference: {fileID: 0}
    - target: {fileID: 826358553837648126, guid: e90c5fd74ae626e4bbf37a46623c427c, type: 3}
      propertyPath: m_LocalPosition.y
      value: 0.0427
      objectReference: {fileID: 0}
    - target: {fileID: 826358553837648126, guid: e90c5fd74ae626e4bbf37a46623c427c, type: 3}
      propertyPath: m_LocalPosition.z
      value: -0.1331
      objectReference: {fileID: 0}
    - target: {fileID: 1847916136318971140, guid: e90c5fd74ae626e4bbf37a46623c427c, type: 3}
      propertyPath: m_LocalPosition.x
      value: -0.2127
      objectReference: {fileID: 0}
    - target: {fileID: 1847916136318971140, guid: e90c5fd74ae626e4bbf37a46623c427c, type: 3}
      propertyPath: m_LocalPosition.y
      value: 0.0427
      objectReference: {fileID: 0}
    - target: {fileID: 1847916136318971140, guid: e90c5fd74ae626e4bbf37a46623c427c, type: 3}
      propertyPath: m_LocalPosition.z
      value: -0.1331
      objectReference: {fileID: 0}
    - target: {fileID: 2132715955510869554, guid: e90c5fd74ae626e4bbf37a46623c427c, type: 3}
      propertyPath: m_LocalScale.z
      value: 10
      objectReference: {fileID: 0}
    - target: {fileID: 2132715955510869554, guid: e90c5fd74ae626e4bbf37a46623c427c, type: 3}
      propertyPath: m_LocalRotation.w
      value: 1
      objectReference: {fileID: 0}
    - target: {fileID: 2132715955510869554, guid: e90c5fd74ae626e4bbf37a46623c427c, type: 3}
      propertyPath: m_LocalRotation.x
      value: 0
      objectReference: {fileID: 0}
    - target: {fileID: 2132715955510869554, guid: e90c5fd74ae626e4bbf37a46623c427c, type: 3}
      propertyPath: m_LocalRotation.y
      value: 0
      objectReference: {fileID: 0}
    - target: {fileID: 2132715955510869554, guid: e90c5fd74ae626e4bbf37a46623c427c, type: 3}
      propertyPath: m_LocalRotation.z
      value: 0
      objectReference: {fileID: 0}
    - target: {fileID: 2263131985560822023, guid: e90c5fd74ae626e4bbf37a46623c427c, type: 3}
      propertyPath: m_LocalPosition.x
      value: -0.2022
      objectReference: {fileID: 0}
    - target: {fileID: 2263131985560822023, guid: e90c5fd74ae626e4bbf37a46623c427c, type: 3}
      propertyPath: m_LocalPosition.y
      value: 0.0427
      objectReference: {fileID: 0}
    - target: {fileID: 2263131985560822023, guid: e90c5fd74ae626e4bbf37a46623c427c, type: 3}
      propertyPath: m_LocalPosition.z
      value: -0.1331
      objectReference: {fileID: 0}
    - target: {fileID: 2506700307050844906, guid: e90c5fd74ae626e4bbf37a46623c427c, type: 3}
      propertyPath: m_LocalPosition.x
      value: -0.194
      objectReference: {fileID: 0}
    - target: {fileID: 2506700307050844906, guid: e90c5fd74ae626e4bbf37a46623c427c, type: 3}
      propertyPath: m_LocalPosition.y
      value: 0.0165
      objectReference: {fileID: 0}
    - target: {fileID: 2506700307050844906, guid: e90c5fd74ae626e4bbf37a46623c427c, type: 3}
      propertyPath: m_LocalPosition.z
      value: -0.2024
      objectReference: {fileID: 0}
    - target: {fileID: 3897616010093383674, guid: e90c5fd74ae626e4bbf37a46623c427c, type: 3}
      propertyPath: m_Name
      value: CLOCK DROPPER Left
      objectReference: {fileID: 0}
    - target: {fileID: 4042665113757043502, guid: e90c5fd74ae626e4bbf37a46623c427c, type: 3}
      propertyPath: m_Mesh
      value: 
      objectReference: {fileID: 2550800834359429372, guid: 5c85fea770e05114aa398b64c3930d1a, type: 3}
    - target: {fileID: 4233083877899842246, guid: e90c5fd74ae626e4bbf37a46623c427c, type: 3}
      propertyPath: m_LocalPosition.x
      value: -0.2022
      objectReference: {fileID: 0}
    - target: {fileID: 4233083877899842246, guid: e90c5fd74ae626e4bbf37a46623c427c, type: 3}
      propertyPath: m_LocalPosition.y
      value: 0.0427
      objectReference: {fileID: 0}
    - target: {fileID: 4233083877899842246, guid: e90c5fd74ae626e4bbf37a46623c427c, type: 3}
      propertyPath: m_LocalPosition.z
      value: -0.1331
      objectReference: {fileID: 0}
    - target: {fileID: 5019481598085998077, guid: e90c5fd74ae626e4bbf37a46623c427c, type: 3}
      propertyPath: m_LocalPosition.x
      value: -0.1996
      objectReference: {fileID: 0}
    - target: {fileID: 5019481598085998077, guid: e90c5fd74ae626e4bbf37a46623c427c, type: 3}
      propertyPath: m_LocalPosition.y
      value: -0.0048
      objectReference: {fileID: 0}
    - target: {fileID: 5019481598085998077, guid: e90c5fd74ae626e4bbf37a46623c427c, type: 3}
      propertyPath: m_LocalPosition.z
      value: -0.1357
      objectReference: {fileID: 0}
    - target: {fileID: 5852601216207369638, guid: e90c5fd74ae626e4bbf37a46623c427c, type: 3}
      propertyPath: m_LocalPosition.x
      value: -0.2022
      objectReference: {fileID: 0}
    - target: {fileID: 5852601216207369638, guid: e90c5fd74ae626e4bbf37a46623c427c, type: 3}
      propertyPath: m_LocalPosition.y
      value: 0.0427
      objectReference: {fileID: 0}
    - target: {fileID: 5852601216207369638, guid: e90c5fd74ae626e4bbf37a46623c427c, type: 3}
      propertyPath: m_LocalPosition.z
      value: -0.1581
      objectReference: {fileID: 0}
    - target: {fileID: 5980385857689202251, guid: e90c5fd74ae626e4bbf37a46623c427c, type: 3}
      propertyPath: m_LocalPosition.x
      value: -0.1996
      objectReference: {fileID: 0}
    - target: {fileID: 5980385857689202251, guid: e90c5fd74ae626e4bbf37a46623c427c, type: 3}
      propertyPath: m_LocalPosition.y
      value: -0.0048
      objectReference: {fileID: 0}
    - target: {fileID: 5980385857689202251, guid: e90c5fd74ae626e4bbf37a46623c427c, type: 3}
      propertyPath: m_LocalPosition.z
      value: -0.1607
      objectReference: {fileID: 0}
    - target: {fileID: 6144725976121487056, guid: e90c5fd74ae626e4bbf37a46623c427c, type: 3}
      propertyPath: m_LocalPosition.x
      value: -0.2022
      objectReference: {fileID: 0}
    - target: {fileID: 6144725976121487056, guid: e90c5fd74ae626e4bbf37a46623c427c, type: 3}
      propertyPath: m_LocalPosition.y
      value: 0.0427
      objectReference: {fileID: 0}
    - target: {fileID: 6144725976121487056, guid: e90c5fd74ae626e4bbf37a46623c427c, type: 3}
      propertyPath: m_LocalPosition.z
      value: -0.1331
      objectReference: {fileID: 0}
    - target: {fileID: 7951043437849984523, guid: e90c5fd74ae626e4bbf37a46623c427c, type: 3}
      propertyPath: m_LocalPosition.x
      value: -0.2022
      objectReference: {fileID: 0}
    - target: {fileID: 7951043437849984523, guid: e90c5fd74ae626e4bbf37a46623c427c, type: 3}
      propertyPath: m_LocalPosition.y
      value: 0.0427
      objectReference: {fileID: 0}
    - target: {fileID: 7951043437849984523, guid: e90c5fd74ae626e4bbf37a46623c427c, type: 3}
      propertyPath: m_LocalPosition.z
      value: -0.1331
      objectReference: {fileID: 0}
    - target: {fileID: 8478929282918231948, guid: e90c5fd74ae626e4bbf37a46623c427c, type: 3}
      propertyPath: m_LocalPosition.x
      value: -0.2022
      objectReference: {fileID: 0}
    - target: {fileID: 8478929282918231948, guid: e90c5fd74ae626e4bbf37a46623c427c, type: 3}
      propertyPath: m_LocalPosition.y
      value: 0.0427
      objectReference: {fileID: 0}
    - target: {fileID: 8478929282918231948, guid: e90c5fd74ae626e4bbf37a46623c427c, type: 3}
      propertyPath: m_LocalPosition.z
      value: -0.1331
      objectReference: {fileID: 0}
    m_RemovedComponents: []
  m_SourcePrefab: {fileID: 100100000, guid: e90c5fd74ae626e4bbf37a46623c427c, type: 3}
